module books

go 1.17

require (
	github.com/appleboy/gin-jwt/v2 v2.7.0
	github.com/gin-contrib/cors v1.3.1
	github.com/gin-gonic/gin v1.7.4
	github.com/joho/godotenv v1.4.0
	github.com/lib/pq v1.10.3
	github.com/swaggo/gin-swagger v1.3.2
	golang.org/x/crypto v0.0.0-20210921155107-089bfa567519
	gorm.io/driver/postgres v1.2.1
	gorm.io/gorm v1.22.2
)

require (
	github.com/PuerkitoBio/purell v1.1.0 // indirect
	github.com/PuerkitoBio/urlesc v0.0.0-20170810143723-de5bf2ad4578 // indirect
	github.com/gin-contrib/sse v0.1.0 // indirect
	github.com/go-co-op/gocron v1.9.0
	github.com/go-openapi/jsonpointer v0.17.0 // indirect
	github.com/go-openapi/jsonreference v0.19.0 // indirect
	github.com/go-openapi/spec v0.19.0 // indirect
	github.com/go-openapi/swag v0.17.0 // indirect
	github.com/go-playground/locales v0.13.0 // indirect
	github.com/go-playground/universal-translator v0.17.0 // indirect
	github.com/go-playground/validator/v10 v10.4.1 // indirect
	github.com/gofrs/uuid v4.0.0+incompatible
	github.com/golang-jwt/jwt/v4 v4.1.0 // indirect
	github.com/golang/protobuf v1.3.3 // indirect
	github.com/jackc/chunkreader/v2 v2.0.1 // indirect
	github.com/jackc/pgconn v1.10.0 // indirect
	github.com/jackc/pgio v1.0.0 // indirect
	github.com/jackc/pgpassfile v1.0.0 // indirect
	github.com/jackc/pgproto3/v2 v2.1.1 // indirect
	github.com/jackc/pgservicefile v0.0.0-20200714003250-2b9c44734f2b // indirect
	github.com/jackc/pgtype v1.8.1 // indirect
	github.com/jackc/pgx/v4 v4.13.0 // indirect
	github.com/jinzhu/inflection v1.0.0 // indirect
	github.com/jinzhu/now v1.1.2 // indirect
	github.com/json-iterator/go v1.1.9 // indirect
	github.com/leodido/go-urn v1.2.0 // indirect
	github.com/mailru/easyjson v0.0.0-20180823135443-60711f1a8329 // indirect
	github.com/mattn/go-isatty v0.0.12 // indirect
	github.com/modern-go/concurrent v0.0.0-20180306012644-bacd9c7ef1dd // indirect
	github.com/modern-go/reflect2 v1.0.2 // indirect
	github.com/pkg/errors v0.8.1 // indirect
	github.com/swaggo/swag v1.5.1
	github.com/ugorji/go/codec v1.1.7 // indirect
	golang.org/x/net v0.0.0-20210226172049-e18ecbb05110 // indirect
	golang.org/x/sys v0.0.0-20210615035016-665e8c7367d1 // indirect
	golang.org/x/text v0.3.7 // indirect
	golang.org/x/tools v0.0.0-20200103221440-774c71fcf114 // indirect
	gopkg.in/yaml.v2 v2.2.8 // indirect
)

require (
	github.com/robfig/cron/v3 v3.0.1 // indirect
	golang.org/x/sync v0.0.0-20210220032951-036812b2e83c // indirect
)
